:20000000014500400B520040055A0040026400403800014030010140410201403A0301408B
:200020004704014045050140410601404307014002090140030B0140040C0140040D014058
:20004000010F0140661401403F150140661601404417014002190140021B01400940014062
:200060001441014014420140094301400E44014014450140114601400B47014016480140CF
:200080001C4901400E4C0140094D014009500140025101407E020093015A08100910109912
:2000A00011AA185A199C782C79097C400B040C042B022C04C701860D870F05020A010B01F1
:2000C0000D020E0110021602170118011E021F02200123012A022B022F01310132023401FD
:2000E00035023E143F11580459045F018308870389048A018F04900291019602970298025F
:200100009B049E029F03A304A401A508A908AA01AC01AF08B002B104B401B503B708BE11E3
:20012000BF41D804D904DC10DF010140030C041008010A490B240C040E45108415401628C1
:200140001704180819081F22212125022680270828012A022B082C842E442F1030843410E3
:200160003540370939403A083B243C043D403E238120872289038C048D08C043C2FFC4EA25
:20018000CAFDCCFACEFEE004E620030205020A010B020F0112021402170118021B011C0252
:2001A000230126012A012C012F0231023401350136023E503F11580459045F018002810497
:2001C000820D84058504860A88208B018C038E0C8F019010940996069701982099029C1091
:2001E0009D02A020A302A501A610A810AB02AD04AE20B00FB102B210B301B420B704BA0288
:20020000BE14BF45D804D904DC01DF01010A0201030504100A690C440D200E550F841084EE
:2002200011401304154016081704182019131F902101231125012610281429402A082B40C1
:200240002C802E4030403120330434103704381439403A013D403E158308850186108D10F9
:2002600094149540964D9B089C149D409F05A280A480C04FC2FFC4EFCA9FCC6ECEFFE4022B
:200280000A010F011501180119011F0120012C01320133013E043F0440524104423044060D
:2002A00045CE46FD470B481F49FF4AFF4BFF4C224EF04F0850045409580459045A045B042A
:2002C0005D115F0162C0644065016610671168C069016B116C406D016E406F0180028102EB
:2002E00085028A02900191019501960199019A019C01A202A301A602AB02AD02B101B20217
:20030000B401B502BE14BF11D804D904DF010304074408100A080E55108011401410170239
:2003200018201E282310240825012C802E50309033043410370639403E054004410843018B
:2003400049644A8050405218584159146301688069406A086B46840185088A108D01930140
:2003600094149540967D99019C109D489F05A480AA80AF10B310B410B501B780C052C2F2D7
:20038000C439CAB0CCEECEC8D007D20CD60FD808E290E608E808EA7000010101070108015E
:2003A0000B010E010F021002130214021A021E0226012F0130023201350137023E053F509B
:2003C00054015604580459045B045D905F018108840D8508880289088A0D8C0D8F089001EF
:2003E00091019202930294029608980299049A049C0D9D04A108A506A701A80DAC0DB20FC4
:20040000B308B507BA08BB20BF04D602D72CD804D904DB04DC11DD10DF01001002010310B2
:200420000746082009800AA00E551150141018101C801D04200421082210265029082A02F5
:200440002E40329033013602395A3A013E954DC05E805F0561016780695A6B107180720224
:2004600087408E04908894049675981099019A109B469C409D089F01A28CA508A810A9201E
:20048000AD48B310B410B510B680B740C0D7C2FFC423CA13CC8DCEFFD6D0D881E240E8049F
:2004A000E804EC80E608E808EC4038023E0158045F011E808A40E040E402E074000A018454
:2004C000040805840602080809800B040C080E020F80100311011204140C15601603180122
:2004E00019561A081B091C0A1D071F3820022184250A2710280229042A082D042F80317F60
:20050000320F338039023A083F04404549FF4AFF4BFF4F0150185440580459045A045B0405
:200520005C115D195F016040624064406540668068806A806C806E80910392019304940108
:200540009505970A99049A019B099C019D0EB001B10FB902BE01C045C9FFCAFFCBFFCD83A1
:20056000CE03CF01D018D280D804D904DA04DB04DC10DD99DF01E040E240E440E540E680F7
:20058000E880EA80EC80EE80000401A208200AA00B020E551110128019081E80210A2740C2
:2005A00029AA2A0131023258331035083751388439183A423B024280468048024C02610829
:2005C00062506A557680850286508E048F409080911892A0940496559702982099A09A1351
:2005E0009B019D089E80A002A29CB504B720C00FC2FFC40ACA0FCCFFCE0FD081D218D80E2C
:20060000E250EA51EC30000203020702080209020C02100111011401170118011D011E0178
:20062000260227012F0232013301340235023E143F14404549FF4AFF4BFF4D834E034F01EF
:200640005018580459045A045D095F016040624064406540668068806A806C806E80810CAB
:20066000840485048708880189088A068B048C04910E920393019407980199049A069B0B32
:200680009C049D08A10CA503A704A904AA04AC04AD04AF08B10EB301B407BA20BF04C045D2
:2006A000C5ECC720C823C9FFCAFFCBFFCD83CE03CF01D018D804D904DA04DC11DD09DF0139
:2006C000E040E240E440E540E680E880EA80EC80EE80000401A00746082009020AA00B02A1
:2006E0000E5511101201141019201F242102220424082604282029A82A012C102E40310203
:2007000032903301374639183A023E154280468048024B054C0250025202844086048B0493
:200720008C0490809118922096D59705981099849A139B469C609D089E809F01A298A60223
:20074000B040B404C0D7C2FFC423CA5FCCDDCEE7D081D218E290EA12EE22EA02EE02EA01AB
:20076000EC30314033013648842087088A10CCF0E210E6105210570958205B085E02600864
:2007800065048080870198209A109B089D409F01A648D4E0D6E0D8C0E220E61003403E106D
:2007A000508085408B208E019D409F01A080A304A649AB04B308B408B504C010CE20D420A6
:2007C000E610EE2086088D4096109F01A324A648AB40E210EC8010101501280530017F085B
:2007E000812088048E028F10C40CCA08CC02DE01E00E5082560A5B086320640866408608A8
:200800008B088C08910198149A02A004A120A310A708D407D607D803E006300145085120A8
:2008200054048408910198149E409F08A004A120AC80B402CC02D001D406EC0208080B0444
:200840000F40910198149C09A508AB08B240C20EEC0115202510500556105C1089028C109F
:20086000914096109A10A180A324AE40AF01B210B580C480C820D4E0D620EA40EE4050015B
:200880005180572058085D42630864107A027C80841886028C8191409902A180A324AA107B
:2008A000B110B405B510D4E0D6E0D8C0DC80DE20E240E650EA8010401320148064047810D4
:2008C0007D01910198149C01A508AF44C40ED801DE0378407C8098C0AB20B001B508DC0171
:2008E000DE04EC0C0002010108020A020B01100211011A021B0100EA03C000002138000096
:200900003000000000FFFF00FF000000700004CBFB003B00000000004000003F3F003F0038
:20092000C0000000401313001000AC0000FFFF00FF00000000FFFF00FF00000003001801BF
:2009400004001801050018010000000000000000000000000000000000000000000000005C
:00000001FF
